<?xml version="1.0" encoding="utf-8"?>
<!-- Generator: Adobe Illustrator 21.1.0, SVG Export Plug-In . SVG Version: 6.00 Build 0)  -->
<svg version="1.1" xmlns="http://www.w3.org/2000/svg" xmlns:xlink="http://www.w3.org/1999/xlink" x="0px" y="0px"
	 viewBox="0 0 200 200" style="enable-background:new 0 0 200 200;" xml:space="preserve">
<style type="text/css">
	.st0{opacity:0.3;enable-background:new    ;}
	.st1{display:none;}
	.st2{display:inline;}
	.st3{fill:#FFFFFF;}
</style>
<g id="Layer_1">
	<g id="Layer_1_1_">
		<rect y="0" class="st0" width="200" height="200"/>
	</g>
	<g id="Layer_2" class="st1">
		<g class="st2">
			<path class="st3" d="M125.1,86.1v39.8c0,1.8-1.5,3.3-3.3,3.3H75.3c-1.8,0-3.3-1.5-3.3-3.3V70.6c0-1.8,1.5-3.3,3.3-3.3h31
				c1.8,0,4.4,1.1,5.7,2.4l10.8,10.8C124,81.7,125.1,84.3,125.1,86.1z M120.6,89.4h-14.4c-1.8,0-3.3-1.5-3.3-3.3V71.7H76.4v53.1
				h44.2C120.6,124.8,120.6,89.4,120.6,89.4z M80.8,96c0-3.7,3-6.6,6.6-6.6s6.6,3,6.6,6.6s-3,6.6-6.6,6.6S80.8,99.7,80.8,96z
				 M116.2,120.4H80.8v-6.6l6.6-6.6l4.4,4.4l13.3-13.3l11.1,11.1C116.2,109.4,116.2,120.4,116.2,120.4z M107.4,85h13
				c-0.2-0.6-0.5-1.2-0.8-1.4l-10.8-10.8c-0.2-0.2-0.8-0.6-1.4-0.8C107.4,72,107.4,85,107.4,85z"/>
		</g>
	</g>
</g>
<g id="Layer_2_1_" class="st1">
	<g class="st2">
		<path class="st3" d="M113.3,91.6V114c0,1-0.8,1.9-1.9,1.9H85.2c-1,0-1.9-0.8-1.9-1.9V82.8c0-1,0.8-1.9,1.9-1.9h17.5
			c1,0,2.5,0.6,3.2,1.3l6.1,6.1C112.7,89.1,113.3,90.5,113.3,91.6z M110.8,93.4h-8.1c-1,0-1.9-0.8-1.9-1.9v-8.1h-2.5v2.5h-2.5v-2.5
			h-10v30h25V93.4z M100.7,106.1c0.1,0.3,0.2,0.7,0.2,1c0,2.2-2.1,3.7-5,3.7c-2.9,0-5-1.6-5-3.7c0-0.4,0.1-0.7,0.2-1
			c0,0,0.4-1.2,2.3-7.7v-2.5h2.5v2.5h1.5c0.6,0,1.1,0.4,1.2,0.9C100.2,104.9,100.7,106.1,100.7,106.1z M95.8,85.9h-2.5v2.5h2.5V85.9
			z M95.8,90.9h-2.5v2.5h2.5V90.9z M98.3,107.2c0-0.7-1.1-1.2-2.5-1.2s-2.5,0.6-2.5,1.2s1.1,1.2,2.5,1.2S98.3,107.8,98.3,107.2z
			 M98.3,88.4h-2.5v2.5h2.5V88.4z M98.3,93.4h-2.5v2.5h2.5V93.4z M103.3,90.9h7.3c-0.1-0.3-0.3-0.7-0.4-0.8l-6.1-6.1
			c-0.1-0.1-0.5-0.3-0.8-0.4V90.9z"/>
	</g>
</g>
<g id="Layer_3_1_" class="st1">
	<g class="st2">
		<path class="st3" d="M113.3,91.6V114c0,1-0.8,1.9-1.9,1.9H85.2c-1,0-1.9-0.8-1.9-1.9V82.8c0-1,0.8-1.9,1.9-1.9h17.5
			c1,0,2.5,0.6,3.2,1.3l6.1,6.1C112.7,89.1,113.3,90.5,113.3,91.6z M110.8,93.4h-8.1c-1,0-1.9-0.8-1.9-1.9v-8.1h-15v30h25V93.4z
			 M95.8,98.1v10.6c0,0.3-0.2,0.5-0.4,0.6c-0.1,0-0.2,0-0.2,0c-0.2,0-0.3-0.1-0.4-0.2l-3.2-3.3H89c-0.4,0-0.6-0.3-0.6-0.6v-3.7
			c0-0.4,0.3-0.6,0.6-0.6h2.6l3.2-3.3c0.2-0.2,0.4-0.2,0.7-0.1S95.8,97.9,95.8,98.1z M100.4,107.7c1.1-1.2,1.7-2.7,1.7-4.3
			s-0.6-3.1-1.7-4.3c-0.5-0.5-1.3-0.5-1.8-0.1c-0.5,0.5-0.5,1.3,0,1.8c0.6,0.7,1,1.6,1,2.6s-0.4,1.9-1,2.6c-0.5,0.5-0.4,1.3,0,1.8
			c0.3,0.2,0.6,0.3,0.9,0.3C99.8,108.1,100.1,107.9,100.4,107.7z M104.5,110.5c1.6-2,2.5-4.5,2.5-7.1s-0.9-5.1-2.5-7.1
			c-0.4-0.5-1.2-0.6-1.8-0.2c-0.5,0.4-0.6,1.2-0.2,1.8c1.3,1.6,2,3.5,2,5.5s-0.7,3.9-2,5.5c-0.4,0.5-0.4,1.3,0.2,1.8
			c0.2,0.2,0.5,0.3,0.8,0.3C103.9,111,104.3,110.8,104.5,110.5z M103.3,90.9h7.3c-0.1-0.3-0.3-0.7-0.4-0.8l-6.1-6.1
			c-0.1-0.1-0.5-0.3-0.8-0.4V90.9z"/>
	</g>
</g>
<g id="Layer_4" class="st1">
	<g class="st2">
		<path class="st3" d="M113.3,91.6V114c0,1-0.8,1.9-1.9,1.9H85.2c-1,0-1.9-0.8-1.9-1.9V82.8c0-1,0.8-1.9,1.9-1.9h17.5
			c1,0,2.5,0.6,3.2,1.3l6.1,6.1C112.7,89.1,113.3,90.5,113.3,91.6z M110.8,93.4h-8.1c-1,0-1.9-0.8-1.9-1.9v-8.1h-15v30h25V93.4z
			 M93.6,95.8l1,0.7c0.3,0.2,0.3,0.6,0.1,0.9l-3.5,4.7l3.5,4.7c0.2,0.3,0.2,0.7-0.1,0.9l-1,0.7c-0.3,0.2-0.7,0.2-0.9-0.1l-4.4-5.9
			c-0.2-0.2-0.2-0.5,0-0.7l4.4-5.9C92.9,95.7,93.3,95.6,93.6,95.8z M95.8,110.1l2.7-16.2c0.1-0.4,0.4-0.6,0.7-0.5l1.2,0.2
			c0.4,0.1,0.6,0.4,0.5,0.7l-2.7,16.2c-0.1,0.4-0.4,0.6-0.7,0.5l-1.2-0.2C95.9,110.7,95.7,110.4,95.8,110.1z M108.3,102.5l-4.4,5.9
			c-0.2,0.3-0.6,0.3-0.9,0.1l-1-0.7c-0.3-0.2-0.3-0.6-0.1-0.9l3.5-4.7l-3.5-4.7c-0.2-0.3-0.2-0.7,0.1-0.9l1-0.7
			c0.3-0.2,0.7-0.2,0.9,0.1l4.4,5.9C108.5,102,108.5,102.3,108.3,102.5z M103.3,90.9h7.3c-0.1-0.3-0.3-0.7-0.4-0.8l-6.1-6.1
			c-0.1-0.1-0.5-0.3-0.8-0.4V90.9z"/>
	</g>
</g>
<g id="Layer_5" class="st1">
	<g class="st2">
		<path class="st3" d="M113.3,91.6V114c0,1-0.8,1.9-1.9,1.9H85.2c-1,0-1.9-0.8-1.9-1.9V82.8c0-1,0.8-1.9,1.9-1.9h17.5
			c1,0,2.5,0.6,3.2,1.3l6.1,6.1C112.7,89.1,113.3,90.5,113.3,91.6z M110.8,93.4h-8.1c-1,0-1.9-0.8-1.9-1.9v-8.1h-15v30h25V93.4z
			 M91.7,110.9h5.5v-2.1h-1.5l2-3.1c0.2-0.4,0.4-0.7,0.4-0.7h0c0,0.1,0.1,0.1,0.1,0.2c0.1,0.2,0.2,0.3,0.3,0.5l2.1,3.1h-1.5v2.1h5.7
			v-2.1h-1.3l-3.7-5.3l3.8-5.5h1.3v-2.1h-5.4V98h1.4l-2,3.1c-0.2,0.4-0.4,0.7-0.4,0.6h0c0-0.1-0.1-0.1-0.1-0.2
			c-0.1-0.1-0.2-0.3-0.3-0.4L96,98h1.5v-2.1h-5.7V98h1.3l3.7,5.3l-3.8,5.5h-1.3V110.9z M103.3,90.9h7.3c-0.1-0.3-0.3-0.7-0.4-0.8
			l-6.1-6.1c-0.1-0.1-0.5-0.3-0.8-0.4V90.9z"/>
	</g>
</g>
<g id="Layer_6" class="st1">
	<g class="st2">
		<path class="st3" d="M113.3,91.6V114c0,1-0.8,1.9-1.9,1.9H85.2c-1,0-1.9-0.8-1.9-1.9V82.8c0-1,0.8-1.9,1.9-1.9h17.5
			c1,0,2.5,0.6,3.2,1.3l6.1,6.1C112.7,89.1,113.3,90.5,113.3,91.6z M110.8,93.4h-8.1c-1,0-1.9-0.8-1.9-1.9v-8.1h-15v30h25V93.4z
			 M87.9,98h1.4l3.2,12.9h3.1l2.5-9.5c0.1-0.3,0.2-0.6,0.2-0.9c0-0.2,0-0.3,0-0.5h0.1l0.1,0.5c0.1,0.3,0.1,0.6,0.2,0.9l2.5,9.5h3.1
			l3.2-12.9h1.4v-2.1h-5.8V98h1.8l-1.9,8.5c-0.1,0.3-0.1,0.6-0.1,0.9l0,0.4h-0.1c0-0.1,0-0.3-0.1-0.4c-0.1-0.3-0.1-0.6-0.2-0.9
			l-2.8-10.6h-2.2l-2.8,10.6c-0.1,0.3-0.1,0.6-0.2,0.9l-0.1,0.4h-0.1l0-0.4c0-0.3-0.1-0.6-0.1-0.9L92,98h1.8v-2.1h-5.9V98z
			 M103.3,90.9h7.3c-0.1-0.3-0.3-0.7-0.4-0.8l-6.1-6.1c-0.1-0.1-0.5-0.3-0.8-0.4V90.9z"/>
	</g>
</g>
<g id="Layer_7" class="st1">
	<g class="st2">
		<path class="st3" d="M113.3,91.6V114c0,1-0.8,1.9-1.9,1.9H85.2c-1,0-1.9-0.8-1.9-1.9V82.8c0-1,0.8-1.9,1.9-1.9h17.5
			c1,0,2.5,0.6,3.2,1.3l6.1,6.1C112.7,89.1,113.3,90.5,113.3,91.6z M110.8,93.4h-8.1c-1,0-1.9-0.8-1.9-1.9v-8.1h-15v30h25V93.4z
			 M91.5,110.9h6.4v-2.1H96v-3.3h2.7c0.8,0,1.6,0,2.3-0.3c1.8-0.6,2.8-2.4,2.8-4.5c0-2.1-1.1-3.8-2.7-4.4c-0.7-0.3-1.6-0.4-2.5-0.4
			h-7.2V98h1.8v10.8h-1.8V110.9z M96,103.4v-5.2h2.3c0.7,0,1.2,0.1,1.6,0.4c0.7,0.4,1.1,1.2,1.1,2.2c0,1.1-0.4,1.9-1.2,2.3
			c-0.4,0.2-0.9,0.3-1.5,0.3H96z M103.3,90.9h7.3c-0.1-0.3-0.3-0.7-0.4-0.8l-6.1-6.1c-0.1-0.1-0.5-0.3-0.8-0.4V90.9z"/>
	</g>
</g>
<g id="Layer_8" class="st1">
	<g class="st2">
		<path class="st3" d="M113.3,91.6V114c0,1-0.8,1.9-1.9,1.9H85.2c-1,0-1.9-0.8-1.9-1.9V82.8c0-1,0.8-1.9,1.9-1.9h17.5
			c1,0,2.5,0.6,3.2,1.3l6.1,6.1C112.7,89.1,113.3,90.5,113.3,91.6z M110.8,93.4h-8.1c-1,0-1.9-0.8-1.9-1.9v-8.1h-15v30h25V93.4z
			 M91.5,95.9h13.7c0.4,0,0.6,0.3,0.6,0.6v1.2c0,0.4-0.3,0.6-0.6,0.6H91.5c-0.4,0-0.6-0.3-0.6-0.6v-1.2
			C90.8,96.2,91.1,95.9,91.5,95.9z M105.8,101.5v1.2c0,0.4-0.3,0.6-0.6,0.6H91.5c-0.4,0-0.6-0.3-0.6-0.6v-1.2c0-0.4,0.3-0.6,0.6-0.6
			h13.7C105.5,100.9,105.8,101.2,105.8,101.5z M105.8,106.5v1.2c0,0.4-0.3,0.6-0.6,0.6H91.5c-0.4,0-0.6-0.3-0.6-0.6v-1.2
			c0-0.4,0.3-0.6,0.6-0.6h13.7C105.5,105.9,105.8,106.2,105.8,106.5z M103.3,90.9h7.3c-0.1-0.3-0.3-0.7-0.4-0.8l-6.1-6.1
			c-0.1-0.1-0.5-0.3-0.8-0.4V90.9z"/>
	</g>
</g>
<g id="Layer_9">
	<g>
		<path class="st3" d="M113.3,91.6V114c0,1-0.8,1.9-1.9,1.9H85.2c-1,0-1.9-0.8-1.9-1.9V82.8c0-1,0.8-1.9,1.9-1.9h17.5
			c1,0,2.5,0.6,3.2,1.3l6.1,6.1C112.7,89.1,113.3,90.5,113.3,91.6z M110.8,93.4h-8.1c-1,0-1.9-0.8-1.9-1.9v-8.1h-15v30h25V93.4z
			 M102.4,102.9c0.8-0.1,1.6-0.1,2.3-0.1c1.3,0,3,0.2,3.5,1c0.1,0.2,0.3,0.5,0,1c0,0,0,0.1-0.1,0.1v0c-0.1,0.4-0.4,0.7-1.4,0.7
			c-1.2,0-3.1-0.6-4.8-1.4c-2.7,0.3-5.6,0.9-7.6,1.6c-2,3.4-3.5,5.1-4.7,5.1c-0.2,0-0.4,0-0.5-0.1l-0.5-0.2c-0.1,0-0.1-0.1-0.1-0.1
			c-0.1-0.1-0.2-0.3-0.1-0.7c0.2-0.9,1.2-2.4,3.7-3.7c0.2-0.1,0.4,0,0.4,0.1c0,0,0,0.1,0,0.1c0.6-1,1.3-2.3,2.1-3.8
			c0.9-1.8,1.6-3.5,2-5.1c-0.6-2.1-0.8-4.3-0.5-5.6c0.1-0.5,0.4-0.8,0.8-0.8h0.4h0c0.3,0,0.5,0.1,0.7,0.3c0.2,0.3,0.3,0.7,0.2,1.3
			c0,0.1,0,0.1-0.1,0.2c0,0.1,0,0.1,0,0.2c0,0.2,0,0.4,0,0.6c0,1.2,0,2.4-0.3,3.7c0.7,2,1.7,3.7,2.8,4.6
			C101.3,102.2,101.8,102.6,102.4,102.9z M92.2,106.8c-1.5,1.1-2.4,2.4-2.7,3.1C90.1,109.6,91,108.7,92.2,106.8z M100.4,103.2
			c-0.2-0.2-0.4-0.3-0.6-0.4c-1-0.8-1.8-2-2.5-3.4c-0.4,1.2-0.9,2.5-1.6,3.8c-0.3,0.5-0.6,1.1-0.9,1.6
			C96.6,104.1,98.5,103.6,100.4,103.2z M97.3,94.5c0.1-0.3,0.1-0.6,0.1-0.9c0-0.3,0.1-0.6,0.1-0.8c0-0.1,0-0.1,0.1-0.2
			c0,0,0-0.1,0-0.1c0-0.4-0.1-0.6-0.3-0.7c0,0,0,0.1,0,0.1C97.1,92.5,97.1,93.4,97.3,94.5z M103.3,90.9h7.3
			c-0.1-0.3-0.3-0.7-0.4-0.8l-6.1-6.1c-0.1-0.1-0.5-0.3-0.8-0.4V90.9z M104.8,104c1,0.4,1.8,0.5,2.4,0.5c0.2,0,0.3,0,0.4,0
			c0,0,0,0,0-0.1C107.4,104.4,106.9,104,104.8,104z"/>
	</g>
</g>
<g id="Layer_10" class="st1">
	<g class="st2">
		<path class="st3" d="M113.3,91.6V114c0,1-0.8,1.9-1.9,1.9H85.2c-1,0-1.9-0.8-1.9-1.9V82.8c0-1,0.8-1.9,1.9-1.9h17.5
			c1,0,2.5,0.6,3.2,1.3l6.1,6.1C112.7,89.1,113.3,90.5,113.3,91.6z M110.8,93.4h-8.1c-1,0-1.9-0.8-1.9-1.9v-8.1h-15v30h25V93.4z
			 M102.4,102.9c0.8-0.1,1.6-0.1,2.3-0.1c1.3,0,3,0.2,3.5,1c0.1,0.2,0.3,0.5,0,1c0,0,0,0.1-0.1,0.1v0c-0.1,0.4-0.4,0.7-1.4,0.7
			c-1.2,0-3.1-0.6-4.8-1.4c-2.7,0.3-5.6,0.9-7.6,1.6c-2,3.4-3.5,5.1-4.7,5.1c-0.2,0-0.4,0-0.5-0.1l-0.5-0.2c-0.1,0-0.1-0.1-0.1-0.1
			c-0.1-0.1-0.2-0.3-0.1-0.7c0.2-0.9,1.2-2.4,3.7-3.7c0.2-0.1,0.4,0,0.4,0.1c0,0,0,0.1,0,0.1c0.6-1,1.3-2.3,2.1-3.8
			c0.9-1.8,1.6-3.5,2-5.1c-0.6-2.1-0.8-4.3-0.5-5.6c0.1-0.5,0.4-0.8,0.8-0.8h0.4h0c0.3,0,0.5,0.1,0.7,0.3c0.2,0.3,0.3,0.7,0.2,1.3
			c0,0.1,0,0.1-0.1,0.2c0,0.1,0,0.1,0,0.2c0,0.2,0,0.4,0,0.6c0,1.2,0,2.4-0.3,3.7c0.7,2,1.7,3.7,2.8,4.6
			C101.3,102.2,101.8,102.6,102.4,102.9z M92.2,106.8c-1.5,1.1-2.4,2.4-2.7,3.1C90.1,109.6,91,108.7,92.2,106.8z M100.4,103.2
			c-0.2-0.2-0.4-0.3-0.6-0.4c-1-0.8-1.8-2-2.5-3.4c-0.4,1.2-0.9,2.5-1.6,3.8c-0.3,0.5-0.6,1.1-0.9,1.6
			C96.6,104.1,98.5,103.6,100.4,103.2z M97.3,94.5c0.1-0.3,0.1-0.6,0.1-0.9c0-0.3,0.1-0.6,0.1-0.8c0-0.1,0-0.1,0.1-0.2
			c0,0,0-0.1,0-0.1c0-0.4-0.1-0.6-0.3-0.7c0,0,0,0.1,0,0.1C97.1,92.5,97.1,93.4,97.3,94.5z M103.3,90.9h7.3
			c-0.1-0.3-0.3-0.7-0.4-0.8l-6.1-6.1c-0.1-0.1-0.5-0.3-0.8-0.4V90.9z M104.8,104c1,0.4,1.8,0.5,2.4,0.5c0.2,0,0.3,0,0.4,0
			c0,0,0,0,0-0.1C107.4,104.4,106.9,104,104.8,104z"/>
	</g>
</g>
<g id="Layer_11" class="st1">
	<g class="st2">
		<path class="st3" d="M113.3,91.6V114c0,1-0.8,1.9-1.9,1.9H85.2c-1,0-1.9-0.8-1.9-1.9V82.8c0-1,0.8-1.9,1.9-1.9h17.5
			c1,0,2.5,0.6,3.2,1.3l6.1,6.1C112.7,89.1,113.3,90.5,113.3,91.6z M110.8,93.4h-8.1c-1,0-1.9-0.8-1.9-1.9v-8.1h-15v30h25V93.4z
			 M100.8,98.4v7.5c0,1.4-1.1,2.5-2.5,2.5h-7.5c-1.4,0-2.5-1.1-2.5-2.5v-7.5c0-1.4,1.1-2.5,2.5-2.5h7.5
			C99.7,95.9,100.8,97.1,100.8,98.4z M108.3,96.6v11.2c0,0.3-0.2,0.5-0.4,0.6c-0.1,0-0.2,0-0.2,0c-0.2,0-0.3-0.1-0.4-0.2l-5.2-5.2
			v-1.8l5.2-5.2c0.1-0.1,0.3-0.2,0.4-0.2c0.1,0,0.2,0,0.2,0C108.2,96.1,108.3,96.3,108.3,96.6z M103.3,90.9h7.3
			c-0.1-0.3-0.3-0.7-0.4-0.8l-6.1-6.1c-0.1-0.1-0.5-0.3-0.8-0.4V90.9z"/>
	</g>
</g>
</svg>
