<?xml version="1.0" encoding="utf-8"?>
<!-- Generator: Adobe Illustrator 21.1.0, SVG Export Plug-In . SVG Version: 6.00 Build 0)  -->
<svg version="1.1" id="Layer_1" xmlns="http://www.w3.org/2000/svg" xmlns:xlink="http://www.w3.org/1999/xlink" x="0px" y="0px"
	 viewBox="0 0 200 200" style="enable-background:new 0 0 200 200;" xml:space="preserve">
<style type="text/css">
	.st0{opacity:0.3;enable-background:new    ;}
	.st1{fill:#FFFFFF;}
</style>
<g id="Layer_1_1_">
	<rect y="0" class="st0" width="200" height="200"/>
</g>
<g id="Layer_2">
	<g>
		<path class="st1" d="M115,93.1v22.4c0,1-0.9,1.9-1.9,1.9H86.9c-1,0-1.9-0.9-1.9-1.9V84.4c0-1,0.9-1.9,1.9-1.9h17.5
			c1,0,2.5,0.6,3.2,1.3l6.1,6.1C114.4,90.7,115,92.1,115,93.1z M112.5,95h-8.1c-1,0-1.9-0.9-1.9-1.9V85H87.5v29.9h25L112.5,95
			L112.5,95z M90,98.8c0-2.1,1.7-3.7,3.7-3.7c2.1,0,3.7,1.7,3.7,3.7s-1.7,3.7-3.7,3.7C91.7,102.5,90,100.8,90,98.8z M110,112.5H90
			v-3.7l3.7-3.7l2.5,2.5l7.5-7.5l6.3,6.3V112.5z M105,92.5h7.3c-0.1-0.3-0.3-0.6-0.4-0.8l-6.1-6.1c-0.2-0.2-0.5-0.3-0.8-0.4
			C105,85.2,105,92.5,105,92.5z"/>
	</g>
</g>
</svg>
