<?xml version="1.0" standalone="no"?>
<!DOCTYPE svg PUBLIC "-//W3C//DTD SVG 20010904//EN"
 "http://www.w3.org/TR/2001/REC-SVG-20010904/DTD/svg10.dtd">
<svg version="1.0" xmlns="http://www.w3.org/2000/svg"
 width="239.000000pt" height="239.000000pt" viewBox="0 0 239.000000 239.000000"
 preserveAspectRatio="xMidYMid meet">
<metadata>
Created by potrace 1.11, written by Peter Selinger 2001-2013
</metadata>
<g transform="translate(0.000000,239.000000) scale(0.100000,-0.100000)"
fill="#000000" stroke="none">
<path d="M1088 2385 c-2 -2 -23 -5 -48 -9 -94 -12 -118 -18 -210 -48 -183 -59
-323 -144 -460 -277 -103 -100 -180 -204 -238 -322 -39 -80 -86 -206 -95 -259
-3 -14 -8 -43 -12 -65 -4 -22 -10 -49 -12 -60 -12 -49 -10 -296 3 -366 50
-279 198 -525 430 -711 161 -129 327 -207 529 -247 91 -18 340 -22 410 -6 17
3 50 11 75 16 87 19 174 51 290 107 210 102 434 345 539 586 71 162 96 286 95
476 0 193 -29 326 -109 505 -69 154 -237 358 -378 459 -127 91 -371 189 -527
212 -42 6 -277 13 -282 9z m-265 -181 c132 -29 323 -132 462 -249 58 -49 61
-50 95 -39 45 15 83 8 115 -22 24 -22 27 -22 66 -9 49 18 49 18 49 5 0 -5 -18
-15 -39 -21 l-40 -12 4 -56 c2 -31 -1 -59 -7 -62 -6 -4 -7 -12 -2 -20 15 -25
14 -46 -2 -24 -14 18 -15 18 -43 2 -55 -32 -133 -15 -160 37 l-14 25 -86 -44
c-114 -59 -285 -170 -394 -257 -76 -61 -87 -73 -80 -92 17 -44 9 -120 -15
-154 l-24 -32 43 -78 c88 -162 255 -398 357 -504 32 -34 40 -37 72 -32 29 5
42 1 66 -19 l30 -26 83 45 c94 50 294 178 312 200 6 8 21 14 33 14 20 0 20 -1
-4 -20 -64 -50 -225 -153 -315 -201 -55 -29 -104 -59 -108 -66 -4 -7 -22 -13
-40 -13 -18 0 -60 -13 -95 -30 -91 -43 -287 -100 -344 -100 -37 0 -13 10 73
31 97 23 210 58 222 69 5 5 -17 15 -50 24 -108 30 -257 88 -363 141 -130 66
-269 156 -263 172 3 7 36 -9 88 -43 113 -73 306 -166 435 -208 160 -51 164
-52 176 -19 9 26 6 33 -46 93 -118 135 -236 306 -337 485 l-39 70 -42 -3 c-24
-2 -55 3 -74 12 -17 9 -32 16 -34 16 -2 0 -24 -28 -50 -62 -63 -83 -64 -85
-64 -66 0 8 23 45 50 80 49 64 50 66 35 94 -29 55 -16 123 31 167 l26 25 -29
88 c-26 76 -50 167 -69 262 -2 12 -11 22 -18 22 -8 0 -28 12 -45 26 -28 23
-35 25 -63 15 -47 -17 -47 -4 1 15 31 12 41 22 41 39 0 24 42 65 66 65 8 0 14
11 15 28 1 15 5 38 9 52 6 17 7 8 3 -26 -5 -47 -3 -53 27 -83 23 -23 38 -30
52 -25 11 3 88 6 172 6 157 -1 296 -17 456 -51 117 -26 114 -26 128 5 11 23 9
28 -19 52 -192 163 -399 268 -580 291 -62 8 -63 8 -16 10 26 0 80 -6 120 -15z
m898 -627 c78 -136 126 -205 192 -274 52 -55 61 -70 84 -150 23 -77 26 -107
27 -238 1 -139 -1 -155 -25 -217 -40 -102 -86 -173 -169 -257 -126 -128 -274
-212 -450 -257 -60 -15 -111 -19 -255 -19 -201 0 -260 10 -457 72 -124 39
-154 56 -47 27 42 -11 103 -18 174 -18 124 -1 150 8 247 87 132 106 145 110
363 111 165 1 172 2 226 29 77 37 132 100 186 213 40 81 44 98 35 119 -16 34
-43 38 -148 21 -151 -24 -186 -3 -152 92 12 31 11 36 -10 53 -34 27 -26 60 18
73 l35 9 -40 7 c-63 9 -69 17 -40 52 43 51 28 81 -63 122 l-41 19 58 64 c93
103 106 136 108 277 2 126 7 172 25 211 10 22 13 17 38 -56 16 -44 52 -121 81
-172z m-1516 -244 c-33 -115 -11 -262 55 -366 57 -90 98 -46 99 104 1 50 6 82
16 95 13 18 15 15 16 -33 1 -29 3 -70 5 -90 11 -161 7 -209 -22 -274 -54 -120
-27 -218 98 -354 l59 -64 -53 15 c-215 63 -349 260 -372 544 -12 145 22 340
82 475 24 53 27 57 30 32 2 -15 -4 -53 -13 -84z"/>
<path d="M600 1891 c-54 -5 -65 -9 -68 -26 -2 -11 -13 -30 -24 -42 -17 -18
-19 -29 -13 -69 7 -52 56 -221 81 -284 14 -35 18 -39 45 -33 18 3 42 -2 67
-15 l39 -20 74 60 c132 106 453 308 491 308 4 0 8 11 8 23 0 22 -8 26 -97 46
-202 45 -455 67 -603 52z"/>
</g>
</svg>
